{
	"name":        "GraphGetTotalSizeOfDatabases",
	"description": "Graph with total size of Databases data files and transaction logs",

	"extract": [
		{
			"order": 1,
			"sectionName": "GetSizeOfDatabases",
			"file": [
				{
					"min":  "8.*",
					"max":  "8.*",
					"file": "sql/GetSizeOfDatabases.2000.sql"
				},
				{
					"min":  "9.*",
					"max":  "9.*",
					"file": "sql/GetSizeOfDatabases.2005.sql"
				},
				{
					"min":  "10.*",
					"max":  "10.*",
					"file": "sql/GetSizeOfDatabases.2008.sql"
				},
				{
					"min":  "11.*",
					"max":  "14.*",
					"file": "sql/GetSizeOfDatabases.2008.sql"
				}
			],
			"primary key": [
				"ServerName",
				"DatabaseId"
			],
			"storage": "report",
			"savehistoryrecords": false,
			"parameters": [
			]
		}
	],

	"transformation": [
	],

	"load": {
		"file": "sqlite/load/GetSizeOfDatabases.sql",
		"storage": "report",
		"attached": [
		],
		"parameters": [
		]
	},

	"component": {
		"name": "graphTotalSizeOfDbReport",
		"struct": {
			"DatabaseName": {
				"source": "DatabaseName"
			},
			"DatabaseSizeMB": {
				"source": "DatabaseSizeMB"
			}
		}
	}
}
